^C:\USERS\RAKIN HAIDER\DESKTOP\RAYTRACER\RAYTRACER\DEBUG\RAYTRACER.OBJ|C:\USERS\RAKIN HAIDER\DESKTOP\RAYTRACER\RAYTRACER\DEBUG\STDAFX.OBJ
C:\USERS\RAKIN HAIDER\DESKTOP\RAYTRACER\DEBUG\RAYTRACER.ILK
C:\USERS\RAKIN HAIDER\DESKTOP\RAYTRACER\DEBUG\RAYTRACER.EXE
C:\USERS\RAKIN HAIDER\DESKTOP\RAYTRACER\DEBUG\RAYTRACER.PDB
^C:\USERS\RAKIN HAIDER\DOCUMENTS\VISUAL STUDIO 2013\PROJECTS\RAYTRACER\RAYTRACER\DEBUG\RAYTRACER.OBJ|C:\USERS\RAKIN HAIDER\DOCUMENTS\VISUAL STUDIO 2013\PROJECTS\RAYTRACER\RAYTRACER\DEBUG\STDAFX.OBJ
C:\USERS\RAKIN HAIDER\DOCUMENTS\VISUAL STUDIO 2013\PROJECTS\RAYTRACER\DEBUG\RAYTRACER.ILK
C:\USERS\RAKIN HAIDER\DOCUMENTS\VISUAL STUDIO 2013\PROJECTS\RAYTRACER\DEBUG\RAYTRACER.EXE
C:\USERS\RAKIN HAIDER\DOCUMENTS\VISUAL STUDIO 2013\PROJECTS\RAYTRACER\DEBUG\RAYTRACER.PDB
