﻿Build started 14-Dec-15 10:27:15 AM.
     1>Project "C:\Users\Rakin Haider\Documents\Visual Studio 2013\Projects\RayTracer\RayTracer\RayTracer.vcxproj" on node 2 (Build target(s)).
     1>Link:
         RayTracer.vcxproj -> C:\Users\Rakin Haider\Documents\Visual Studio 2013\Projects\RayTracer\Debug\RayTracer.exe
     1>Done Building Project "C:\Users\Rakin Haider\Documents\Visual Studio 2013\Projects\RayTracer\RayTracer\RayTracer.vcxproj" (Build target(s)).

Build succeeded.

Time Elapsed 00:00:00.20
